%YAML 1.1
%TAG !u! tag:unity3d.com,2011:
--- !u!1001 &5531894716036478144
PrefabInstance:
  m_ObjectHideFlags: 0
  serializedVersion: 2
  m_Modification:
    m_TransformParent: {fileID: 0}
    m_Modifications:
    - target: {fileID: 1126423849888993568, guid: 657a76649b56b644dbcbde9f86342bf0, type: 3}
      propertyPath: m_Materials.Array.data[0]
      value: 
      objectReference: {fileID: 2100000, guid: fca97364eeb3a7e4eb33254dbefc53d3, type: 2}
    - target: {fileID: 1126423849888993568, guid: 657a76649b56b644dbcbde9f86342bf0, type: 3}
      propertyPath: m_Enabled
      value: 0
      objectReference: {fileID: 0}
    - target: {fileID: 1126423849888993569, guid: 657a76649b56b644dbcbde9f86342bf0, type: 3}
      propertyPath: m_Radius
      value: 1.65
      objectReference: {fileID: 0}
    - target: {fileID: 1126423849888993569, guid: 657a76649b56b644dbcbde9f86342bf0, type: 3}
      propertyPath: m_Center.x
      value: 1
      objectReference: {fileID: 0}
    - target: {fileID: 1126423849888993570, guid: 657a76649b56b644dbcbde9f86342bf0, type: 3}
      propertyPath: m_LocalPosition.x
      value: 0
      objectReference: {fileID: 0}
    - target: {fileID: 1126423849888993570, guid: 657a76649b56b644dbcbde9f86342bf0, type: 3}
      propertyPath: m_LocalPosition.y
      value: 0
      objectReference: {fileID: 0}
    - target: {fileID: 1126423849888993570, guid: 657a76649b56b644dbcbde9f86342bf0, type: 3}
      propertyPath: m_LocalPosition.z
      value: 0
      objectReference: {fileID: 0}
    - target: {fileID: 1126423849888993570, guid: 657a76649b56b644dbcbde9f86342bf0, type: 3}
      propertyPath: m_LocalRotation.x
      value: 0
      objectReference: {fileID: 0}
    - target: {fileID: 1126423849888993570, guid: 657a76649b56b644dbcbde9f86342bf0, type: 3}
      propertyPath: m_LocalRotation.y
      value: 0
      objectReference: {fileID: 0}
    - target: {fileID: 1126423849888993570, guid: 657a76649b56b644dbcbde9f86342bf0, type: 3}
      propertyPath: m_LocalRotation.z
      value: 0
      objectReference: {fileID: 0}
    - target: {fileID: 1126423849888993570, guid: 657a76649b56b644dbcbde9f86342bf0, type: 3}
      propertyPath: m_LocalRotation.w
      value: 1
      objectReference: {fileID: 0}
    - target: {fileID: 1126423849888993570, guid: 657a76649b56b644dbcbde9f86342bf0, type: 3}
      propertyPath: m_RootOrder
      value: 0
      objectReference: {fileID: 0}
    - target: {fileID: 1126423849888993570, guid: 657a76649b56b644dbcbde9f86342bf0, type: 3}
      propertyPath: m_LocalEulerAnglesHint.x
      value: 0
      objectReference: {fileID: 0}
    - target: {fileID: 1126423849888993570, guid: 657a76649b56b644dbcbde9f86342bf0, type: 3}
      propertyPath: m_LocalEulerAnglesHint.y
      value: 0
      objectReference: {fileID: 0}
    - target: {fileID: 1126423849888993570, guid: 657a76649b56b644dbcbde9f86342bf0, type: 3}
      propertyPath: m_LocalEulerAnglesHint.z
      value: 0
      objectReference: {fileID: 0}
    - target: {fileID: 1126423849888993573, guid: 657a76649b56b644dbcbde9f86342bf0, type: 3}
      propertyPath: m_Name
      value: Enemy_Projectile_Melee
      objectReference: {fileID: 0}
    - target: {fileID: 1126423849888993575, guid: 657a76649b56b644dbcbde9f86342bf0, type: 3}
      propertyPath: targetType
      value: 1
      objectReference: {fileID: 0}
    - target: {fileID: 1126423849888993575, guid: 657a76649b56b644dbcbde9f86342bf0, type: 3}
      propertyPath: lifeTime
      value: 0.5
      objectReference: {fileID: 0}
    - target: {fileID: 1126423849888993575, guid: 657a76649b56b644dbcbde9f86342bf0, type: 3}
      propertyPath: damage
      value: 1
      objectReference: {fileID: 0}
    - target: {fileID: 1126423849888993575, guid: 657a76649b56b644dbcbde9f86342bf0, type: 3}
      propertyPath: force
      value: 0
      objectReference: {fileID: 0}
    m_RemovedComponents:
    - {fileID: 1126423849888993574, guid: 657a76649b56b644dbcbde9f86342bf0, type: 3}
  m_SourcePrefab: {fileID: 100100000, guid: 657a76649b56b644dbcbde9f86342bf0, type: 3}
